…
summarize_df = homicides_new %>% 
  group_by(city_state) %>% 
  summarize(total = n(),
            unresolved = sum(status == "unresolved")) 

summarize_df
```

    ## # A tibble: 51 × 3
    ##    city_state     total unresolved
    ##    <chr>          <int>      <int>
    ##  1 Albuquerque_NM   378        146
    ##  2 Atlanta_GA       973        373
    ##  3 Baltimore_MD    2827       1825
    ##  4 Baton Rouge_LA   424        196
    ##  5 Birmingham_AL    800        347
    ##  6 Boston_MA        614        310
    ##  7 Buffalo_NY       521        319
    ##  8 Charlotte_NC     687        206
    ##  9 Chicago_IL      5535       4073
    ## 10 Cincinnati_OH    694        309
    ## # … with 41 more rows
…
#### Using `prop.test` for each cities

``` r
all_cities = 
  summarize_df %>% 
  mutate(prop_tests = map2(.x = unresolved, .y = total, ~ prop.test(x = .x, n = .y)),
         tidy_df = map(.x = prop_tests, ~ broom::tidy(.x))) %>% 
  select(-prop_tests) %>% 
  unnest(tidy_df) %>% 
  select(city_state, estimate, conf.low, conf.high)

all_cities
```

    ## # A tibble: 51 × 4
    ##    city_state     estimate conf.low conf.high
    ##    <chr>             <dbl>    <dbl>     <dbl>
    ##  1 Albuquerque_NM    0.386    0.337     0.438
    ##  2 Atlanta_GA        0.383    0.353     0.415
    ##  3 Baltimore_MD      0.646    0.628     0.663
    ##  4 Baton Rouge_LA    0.462    0.414     0.511
    ##  5 Birmingham_AL     0.434    0.399     0.469
    ##  6 Boston_MA         0.505    0.465     0.545
    ##  7 Buffalo_NY        0.612    0.569     0.654
    ##  8 Charlotte_NC      0.300    0.266     0.336
    ##  9 Chicago_IL        0.736    0.724     0.747
    ## 10 Cincinnati_OH     0.445    0.408     0.483
    ## # … with 41 more rows
…
